[debug] [2019-11-01T13:34:00.500Z] ----------------------------------------------------------------------
[debug] [2019-11-01T13:34:00.502Z] Command:       /usr/local/bin/node /usr/local/bin/firebase emulators:start
[debug] [2019-11-01T13:34:00.502Z] CLI Version:   7.6.2
[debug] [2019-11-01T13:34:00.502Z] Platform:      darwin
[debug] [2019-11-01T13:34:00.502Z] Node Version:  v12.11.0
[debug] [2019-11-01T13:34:00.504Z] Time:          Fri Nov 01 2019 13:34:00 GMT+0000 (Greenwich Mean Time)
[debug] [2019-11-01T13:34:00.504Z] ----------------------------------------------------------------------
[debug] [2019-11-01T13:34:00.504Z] 
[info] i  Starting emulators: ["functions"]
[warn] ⚠  Your requested "node" version "8" doesn't match your global version "12"
[info] ✔  functions: Emulator started at http://localhost:5001
[info] i  functions: Watching "/Users/martinpritchard/Git/Playground/react-vote/functions" for Cloud Functions...
[debug] [2019-11-01T13:34:00.848Z] [worker-~diagnostic~-2dc76b53-55a1-4ef5-924f-690974a639ef]: BUSY
[debug] [2019-11-01T13:34:01.087Z] [runtime-status] Functions runtime initialized. {"cwd":"/Users/martinpritchard/Git/Playground/react-vote/functions","node_version":"12.11.0"}
[debug] [2019-11-01T13:34:01.090Z] [runtime-status] Disabled runtime features: undefined {}
[debug] [2019-11-01T13:34:01.096Z] [runtime-status] Resolved module firebase-admin {"declared":true,"installed":true,"version":"8.7.0","resolution":"/Users/martinpritchard/Git/Playground/react-vote/functions/node_modules/firebase-admin/lib/index.js"}
[debug] [2019-11-01T13:34:01.099Z] [runtime-status] Resolved module firebase-functions {"declared":true,"installed":true,"version":"3.3.0","resolution":"/Users/martinpritchard/Git/Playground/react-vote/functions/node_modules/firebase-functions/lib/index.js"}
[debug] [2019-11-01T13:34:01.559Z] [runtime-status] Found google-gax at /Users/martinpritchard/Git/Playground/react-vote/functions/node_modules/google-gax/build/src/index.js {}
[debug] [2019-11-01T13:34:01.559Z] [runtime-status] Outgoing network have been stubbed. [{"name":"http","status":"mocked"},{"name":"http","status":"mocked"},{"name":"https","status":"mocked"},{"name":"https","status":"mocked"},{"name":"net","status":"mocked"},{"name":"google-gax","status":"mocked"}]
[debug] [2019-11-01T13:34:01.622Z] [runtime-status] Checked functions.config() {"config":{}}
[debug] [2019-11-01T13:34:01.624Z] [runtime-status] Resolved module firebase-functions {"declared":true,"installed":true,"version":"3.3.0","resolution":"/Users/martinpritchard/Git/Playground/react-vote/functions/node_modules/firebase-functions/lib/index.js"}
[debug] [2019-11-01T13:34:01.626Z] [runtime-status] Resolved module firebase-admin {"declared":true,"installed":true,"version":"8.7.0","resolution":"/Users/martinpritchard/Git/Playground/react-vote/functions/node_modules/firebase-admin/lib/index.js"}
[debug] [2019-11-01T13:34:01.626Z] [runtime-status] Resolved module firebase-functions {"declared":true,"installed":true,"version":"3.3.0","resolution":"/Users/martinpritchard/Git/Playground/react-vote/functions/node_modules/firebase-functions/lib/index.js"}
[debug] [2019-11-01T13:34:01.680Z] [runtime-status] firebase-admin has been stubbed. {"adminResolution":{"declared":true,"installed":true,"version":"8.7.0","resolution":"/Users/martinpritchard/Git/Playground/react-vote/functions/node_modules/firebase-admin/lib/index.js"}}
[debug] [2019-11-01T13:34:01.682Z] [runtime-status] initializeApp(DEFAULT) {"databaseURL":"https://kidvote-42130.firebaseio.com","storageBucket":"kidvote-42130.appspot.com","projectId":"kidvote-42130"}
[debug] [2019-11-01T13:34:01.752Z] Unsupported trigger: {"eventTrigger":{"resource":"projects/kidvote-42130","eventType":"providers/firebase.auth/eventTypes/user.create","service":"firebaseauth.googleapis.com"},"name":"setUpAcccount","entryPoint":"setUpAcccount"}
[info] i  functions[setUpAcccount]: function ignored because the firebaseauth.googleapis.com emulator does not exist or is not running.
[info] ✔  All emulators started, it is now safe to connect.
[debug] [2019-11-01T13:34:01.777Z] [worker-~diagnostic~-2dc76b53-55a1-4ef5-924f-690974a639ef]: exited
[debug] [2019-11-01T13:34:01.777Z] [worker-~diagnostic~-2dc76b53-55a1-4ef5-924f-690974a639ef]: FINISHED
[debug] [2019-11-01T13:38:03.519Z] File /Users/martinpritchard/Git/Playground/react-vote/functions/src/index.ts changed, reloading triggers
[debug] [2019-11-01T13:38:04.526Z] [worker-~diagnostic~-ec371844-a9cf-4fa9-8c94-b6c831e2b98b]: BUSY
[debug] [2019-11-01T13:38:05.144Z] [runtime-status] Functions runtime initialized. {"cwd":"/Users/martinpritchard/Git/Playground/react-vote/functions","node_version":"12.11.0"}
[debug] [2019-11-01T13:38:05.145Z] [runtime-status] Disabled runtime features: undefined {}
[debug] [2019-11-01T13:38:05.149Z] [runtime-status] Resolved module firebase-admin {"declared":true,"installed":true,"version":"8.7.0","resolution":"/Users/martinpritchard/Git/Playground/react-vote/functions/node_modules/firebase-admin/lib/index.js"}
[debug] [2019-11-01T13:38:05.151Z] [runtime-status] Resolved module firebase-functions {"declared":true,"installed":true,"version":"3.3.0","resolution":"/Users/martinpritchard/Git/Playground/react-vote/functions/node_modules/firebase-functions/lib/index.js"}
[debug] [2019-11-01T13:38:05.518Z] [runtime-status] Found google-gax at /Users/martinpritchard/Git/Playground/react-vote/functions/node_modules/google-gax/build/src/index.js {}
[debug] [2019-11-01T13:38:05.519Z] [runtime-status] Outgoing network have been stubbed. [{"name":"http","status":"mocked"},{"name":"http","status":"mocked"},{"name":"https","status":"mocked"},{"name":"https","status":"mocked"},{"name":"net","status":"mocked"},{"name":"google-gax","status":"mocked"}]
[debug] [2019-11-01T13:38:05.579Z] [runtime-status] Checked functions.config() {"config":{}}
[debug] [2019-11-01T13:38:05.580Z] [runtime-status] Resolved module firebase-functions {"declared":true,"installed":true,"version":"3.3.0","resolution":"/Users/martinpritchard/Git/Playground/react-vote/functions/node_modules/firebase-functions/lib/index.js"}
[debug] [2019-11-01T13:38:05.581Z] [runtime-status] Resolved module firebase-admin {"declared":true,"installed":true,"version":"8.7.0","resolution":"/Users/martinpritchard/Git/Playground/react-vote/functions/node_modules/firebase-admin/lib/index.js"}
[debug] [2019-11-01T13:38:05.582Z] [runtime-status] Resolved module firebase-functions {"declared":true,"installed":true,"version":"3.3.0","resolution":"/Users/martinpritchard/Git/Playground/react-vote/functions/node_modules/firebase-functions/lib/index.js"}
[debug] [2019-11-01T13:38:05.629Z] [runtime-status] firebase-admin has been stubbed. {"adminResolution":{"declared":true,"installed":true,"version":"8.7.0","resolution":"/Users/martinpritchard/Git/Playground/react-vote/functions/node_modules/firebase-admin/lib/index.js"}}
[debug] [2019-11-01T13:38:05.630Z] [runtime-status] initializeApp(DEFAULT) {"databaseURL":"https://kidvote-42130.firebaseio.com","storageBucket":"kidvote-42130.appspot.com","projectId":"kidvote-42130"}
[debug] [2019-11-01T13:38:05.729Z] [worker-~diagnostic~-ec371844-a9cf-4fa9-8c94-b6c831e2b98b]: exited
[debug] [2019-11-01T13:38:05.729Z] [worker-~diagnostic~-ec371844-a9cf-4fa9-8c94-b6c831e2b98b]: FINISHED
[debug] [2019-11-01T13:38:25.019Z] File /Users/martinpritchard/Git/Playground/react-vote/functions/lib/index.js.map changed, reloading triggers
[debug] [2019-11-01T13:38:25.020Z] File /Users/martinpritchard/Git/Playground/react-vote/functions/lib/index.js changed, reloading triggers
[debug] [2019-11-01T13:38:26.027Z] [worker-~diagnostic~-8554ca30-85c5-4099-9b68-3f78d1aa85fc]: BUSY
[debug] [2019-11-01T13:38:26.351Z] [runtime-status] Functions runtime initialized. {"cwd":"/Users/martinpritchard/Git/Playground/react-vote/functions","node_version":"12.11.0"}
[debug] [2019-11-01T13:38:26.353Z] [runtime-status] Disabled runtime features: undefined {}
[debug] [2019-11-01T13:38:26.354Z] [runtime-status] Resolved module firebase-admin {"declared":true,"installed":true,"version":"8.7.0","resolution":"/Users/martinpritchard/Git/Playground/react-vote/functions/node_modules/firebase-admin/lib/index.js"}
[debug] [2019-11-01T13:38:26.355Z] [runtime-status] Resolved module firebase-functions {"declared":true,"installed":true,"version":"3.3.0","resolution":"/Users/martinpritchard/Git/Playground/react-vote/functions/node_modules/firebase-functions/lib/index.js"}
[debug] [2019-11-01T13:38:26.635Z] [runtime-status] Found google-gax at /Users/martinpritchard/Git/Playground/react-vote/functions/node_modules/google-gax/build/src/index.js {}
[debug] [2019-11-01T13:38:26.635Z] [runtime-status] Outgoing network have been stubbed. [{"name":"http","status":"mocked"},{"name":"http","status":"mocked"},{"name":"https","status":"mocked"},{"name":"https","status":"mocked"},{"name":"net","status":"mocked"},{"name":"google-gax","status":"mocked"}]
[debug] [2019-11-01T13:38:26.684Z] [runtime-status] Checked functions.config() {"config":{}}
[debug] [2019-11-01T13:38:26.686Z] [runtime-status] Resolved module firebase-functions {"declared":true,"installed":true,"version":"3.3.0","resolution":"/Users/martinpritchard/Git/Playground/react-vote/functions/node_modules/firebase-functions/lib/index.js"}
[debug] [2019-11-01T13:38:26.687Z] [runtime-status] Resolved module firebase-admin {"declared":true,"installed":true,"version":"8.7.0","resolution":"/Users/martinpritchard/Git/Playground/react-vote/functions/node_modules/firebase-admin/lib/index.js"}
[debug] [2019-11-01T13:38:26.687Z] [runtime-status] Resolved module firebase-functions {"declared":true,"installed":true,"version":"3.3.0","resolution":"/Users/martinpritchard/Git/Playground/react-vote/functions/node_modules/firebase-functions/lib/index.js"}
[debug] [2019-11-01T13:38:26.724Z] [runtime-status] firebase-admin has been stubbed. {"adminResolution":{"declared":true,"installed":true,"version":"8.7.0","resolution":"/Users/martinpritchard/Git/Playground/react-vote/functions/node_modules/firebase-admin/lib/index.js"}}
[debug] [2019-11-01T13:38:26.725Z] [runtime-status] initializeApp(DEFAULT) {"databaseURL":"https://kidvote-42130.firebaseio.com","storageBucket":"kidvote-42130.appspot.com","projectId":"kidvote-42130"}
[debug] [2019-11-01T13:38:26.805Z] [worker-~diagnostic~-8554ca30-85c5-4099-9b68-3f78d1aa85fc]: exited
[debug] [2019-11-01T13:38:26.805Z] [worker-~diagnostic~-8554ca30-85c5-4099-9b68-3f78d1aa85fc]: FINISHED
[debug] [2019-11-01T13:41:39.337Z] File /Users/martinpritchard/Git/Playground/react-vote/functions/src/index.ts changed, reloading triggers
[debug] [2019-11-01T13:41:40.345Z] [worker-~diagnostic~-f48f9f15-9f94-4eee-8007-ca765781bd37]: BUSY
[debug] [2019-11-01T13:41:40.747Z] [runtime-status] Functions runtime initialized. {"cwd":"/Users/martinpritchard/Git/Playground/react-vote/functions","node_version":"12.11.0"}
[debug] [2019-11-01T13:41:40.750Z] [runtime-status] Disabled runtime features: undefined {}
[debug] [2019-11-01T13:41:40.753Z] [runtime-status] Resolved module firebase-admin {"declared":true,"installed":true,"version":"8.7.0","resolution":"/Users/martinpritchard/Git/Playground/react-vote/functions/node_modules/firebase-admin/lib/index.js"}
[debug] [2019-11-01T13:41:40.755Z] [runtime-status] Resolved module firebase-functions {"declared":true,"installed":true,"version":"3.3.0","resolution":"/Users/martinpritchard/Git/Playground/react-vote/functions/node_modules/firebase-functions/lib/index.js"}
[debug] [2019-11-01T13:41:41.067Z] [runtime-status] Found google-gax at /Users/martinpritchard/Git/Playground/react-vote/functions/node_modules/google-gax/build/src/index.js {}
[debug] [2019-11-01T13:41:41.067Z] [runtime-status] Outgoing network have been stubbed. [{"name":"http","status":"mocked"},{"name":"http","status":"mocked"},{"name":"https","status":"mocked"},{"name":"https","status":"mocked"},{"name":"net","status":"mocked"},{"name":"google-gax","status":"mocked"}]
[debug] [2019-11-01T13:41:41.128Z] [runtime-status] Checked functions.config() {"config":{}}
[debug] [2019-11-01T13:41:41.129Z] [runtime-status] Resolved module firebase-functions {"declared":true,"installed":true,"version":"3.3.0","resolution":"/Users/martinpritchard/Git/Playground/react-vote/functions/node_modules/firebase-functions/lib/index.js"}
[debug] [2019-11-01T13:41:41.130Z] [runtime-status] Resolved module firebase-admin {"declared":true,"installed":true,"version":"8.7.0","resolution":"/Users/martinpritchard/Git/Playground/react-vote/functions/node_modules/firebase-admin/lib/index.js"}
[debug] [2019-11-01T13:41:41.131Z] [runtime-status] Resolved module firebase-functions {"declared":true,"installed":true,"version":"3.3.0","resolution":"/Users/martinpritchard/Git/Playground/react-vote/functions/node_modules/firebase-functions/lib/index.js"}
[debug] [2019-11-01T13:41:41.185Z] [runtime-status] firebase-admin has been stubbed. {"adminResolution":{"declared":true,"installed":true,"version":"8.7.0","resolution":"/Users/martinpritchard/Git/Playground/react-vote/functions/node_modules/firebase-admin/lib/index.js"}}
[debug] [2019-11-01T13:41:41.189Z] [runtime-status] initializeApp(DEFAULT) {"databaseURL":"https://kidvote-42130.firebaseio.com","storageBucket":"kidvote-42130.appspot.com","projectId":"kidvote-42130"}
[debug] [2019-11-01T13:41:41.284Z] [worker-~diagnostic~-f48f9f15-9f94-4eee-8007-ca765781bd37]: exited
[debug] [2019-11-01T13:41:41.284Z] [worker-~diagnostic~-f48f9f15-9f94-4eee-8007-ca765781bd37]: FINISHED
